%YAML 1.1
%TAG !u! tag:unity3d.com,2011:
--- !u!114 &11400000
MonoBehaviour:
  m_ObjectHideFlags: 0
  m_CorrespondingSourceObject: {fileID: 0}
  m_PrefabInstance: {fileID: 0}
  m_PrefabAsset: {fileID: 0}
  m_GameObject: {fileID: 0}
  m_Enabled: 1
  m_EditorHideFlags: 0
  m_Script: {fileID: 11500000, guid: 09ff9ca05824cff48b16702e24932b88, type: 3}
  m_Name: ObjectPoolSettings
  m_EditorClassIdentifier: 
  itemsToPool:
  - amountToPool: 10
    objectToPool: {fileID: 9170439068933588926, guid: 35b114b58a2589548b3d412d99774d4d,
      type: 3}
    shouldExpand: 1
  - amountToPool: 2
    objectToPool: {fileID: 1960792777058734833, guid: 4b1705479d5020e42ac7225ce56db77b,
      type: 3}
    shouldExpand: 1
  - amountToPool: 2
    objectToPool: {fileID: 1960792777058734833, guid: 720ea45893f555a4695d6d1f484ac0d8,
      type: 3}
    shouldExpand: 1
  - amountToPool: 1
    objectToPool: {fileID: 1960792777058734833, guid: 8a80a52a271ca0c44b735177ca38052e,
      type: 3}
    shouldExpand: 1
  - amountToPool: 2
    objectToPool: {fileID: 3846398791121988530, guid: 3ea8f6dbcfcdaa5458db2f6a6ac04d78,
      type: 3}
    shouldExpand: 1
  - amountToPool: 3
    objectToPool: {fileID: 5094906792181491763, guid: f85b838f12584a840920dab39897a758,
      type: 3}
    shouldExpand: 1
  - amountToPool: 2
    objectToPool: {fileID: 4545624026225190144, guid: 218ec876a1d1ad94aad3a32532fb5ddd,
      type: 3}
    shouldExpand: 1
  - amountToPool: 2
    objectToPool: {fileID: 2038077509600985607, guid: 1fc8a2cf6de1fce469ad8d56f3727856,
      type: 3}
    shouldExpand: 1
