%YAML 1.1
%TAG !u! tag:unity3d.com,2011:
--- !u!78 &1
TagManager:
  serializedVersion: 2
  tags:
  - Coin
  - Platform01
  - Platform02
  - Platform03
  - Ground
  - Water
  - Platform04
  - Platform05
  - Platform06
  - Platform07
  layers:
  - Default
  - TransparentFX
  - Ignore Raycast
  - 
  - Water
  - UI
  - 
  - 
  - Ground
  - 
  - 
  - 
  - 
  - 
  - 
  - 
  - 
  - 
  - 
  - 
  - 
  - 
  - 
  - 
  - 
  - 
  - 
  - 
  - 
  - 
  - 
  - 
  m_SortingLayers:
  - name: BackGround
    uniqueID: 3989583609
    locked: 0
  - name: EnviromentBack
    uniqueID: 2920454921
    locked: 0
  - name: Default
    uniqueID: 0
    locked: 0
  - name: EnviromentMid
    uniqueID: 3471657219
    locked: 0
  - name: Entities
    uniqueID: 3098599715
    locked: 0
  - name: EnviromentFront
    uniqueID: 305495451
    locked: 0
